[
  {
    "name": "Antoine Lefeuvre"
  },
  {
    "name": "Aurélie Erb"
  },
  {
    "name": "Josselin Mounié"
  },
  {
    "name": "Julie Champagne"
  },
  {
    "name": "Michel Barrère"
  },
  {
    "name": "Pierrick Hospital"
  },
  {
    "name": "Sébastien Lamy"
  },
  {
    "name": "Victor Dorland"
  },
  {
    "name": "FUB"
  }
]